…
# Get total population for Linköping (0580) for the year 2022
population_data <- get_data(kpi_id = "N01951", municipality_id = "0580", year = "2022")
print(population_data)
#   A tibble: 3 × 8
#   gender count status  value isdeleted kpi    period municipality
#   <chr>  <int> <chr>   <dbl> <lgl>     <chr>   <int> <chr>       
# 1 K          1 ""      81679 FALSE     N01951   2022 0580        
# 2 M          1 ""      84994 FALSE     N01951   2022 0580        
# 3 T          1 ""     166673 FALSE     N01951   2022 0580  

# Get data for multiple KPIs and multiple years for multiple municipalities
multi_data <- get_data(kpi_id = c("N01951", "N01953"), municipality_id = c("0580", "0001"), year = c("2020", "2021", "2022"))
print(multi_data)
#    A tibble: 36 × 8
#    gender count status   value isdeleted kpi    period municipality
#    <chr>  <int> <chr>    <dbl> <lgl>     <chr>   <int> <chr>       
#  1 K          1 ""     1194315 FALSE     N01951   2020 0001        
#  2 M          1 ""     1197675 FALSE     N01951   2020 0001        
#  3 T          1 ""     2391990 FALSE     N01951   2020 0001        
#  4 K          1 ""       80561 FALSE     N01951   2020 0580        
#  5 M          1 ""       84055 FALSE     N01951   2020 0580        
#  6 T          1 ""      164616 FALSE     N01951   2020 0580        
#  7 K          1 ""     1205210 FALSE     N01951   2021 0001        
#  8 M          1 ""     1209929 FALSE     N01951   2021 0001        
#  9 T          1 ""     2415139 FALSE     N01951   2021 0001        
# 10 K          1 ""       81028 FALSE     N01951   2021 0580        
#   ℹ 26 more rows
#   ℹ Use `print(n = ...)` to see more rows
```
…
